%YAML 1.1
%TAG !u! tag:unity3d.com,2011:
--- !u!1001 &100100000
Prefab:
  m_ObjectHideFlags: 1
  serializedVersion: 2
  m_Modification:
    m_TransformParent: {fileID: 0}
    m_Modifications: []
    m_RemovedComponents: []
  m_ParentPrefab: {fileID: 0}
  m_RootGameObject: {fileID: 1375203892517298}
  m_IsPrefabParent: 1
--- !u!1 &1375203892517298
GameObject:
  m_ObjectHideFlags: 0
  m_PrefabParentObject: {fileID: 0}
  m_PrefabInternal: {fileID: 100100000}
  serializedVersion: 5
  m_Component:
  - component: {fileID: 4903378389906292}
  - component: {fileID: 114159192604986346}
  m_Layer: 0
  m_Name: Extras
  m_TagString: Untagged
  m_Icon: {fileID: 0}
  m_NavMeshLayer: 0
  m_StaticEditorFlags: 4294967295
  m_IsActive: 1
--- !u!4 &4903378389906292
Transform:
  m_ObjectHideFlags: 1
  m_PrefabParentObject: {fileID: 0}
  m_PrefabInternal: {fileID: 100100000}
  m_GameObject: {fileID: 1375203892517298}
  m_LocalRotation: {x: 0, y: 0, z: 0, w: 1}
  m_LocalPosition: {x: 3.3385665, y: -0.67895484, z: 0}
  m_LocalScale: {x: 1, y: 1, z: 1}
  m_Children: []
  m_Father: {fileID: 0}
  m_RootOrder: 0
  m_LocalEulerAnglesHint: {x: 0, y: 0, z: 0}
--- !u!114 &114159192604986346
MonoBehaviour:
  m_ObjectHideFlags: 1
  m_PrefabParentObject: {fileID: 0}
  m_PrefabInternal: {fileID: 100100000}
  m_GameObject: {fileID: 1375203892517298}
  m_Enabled: 1
  m_EditorHideFlags: 0
  m_Script: {fileID: 11500000, guid: 3fbdf3a4a8f16b24a97fac7b149daaab, type: 3}
  m_Name: 
  m_EditorClassIdentifier: 
  BallPlayer: {fileID: 0}
  Score: {fileID: 0}
  emitter: {fileID: 100000, guid: d321a98408cfc4e0299808f65181aab4, type: 2}
  GeneratorGameobject: {fileID: 0}
  multi: 1
  BackCam: {fileID: 0}
  Steuerungstext_Countdown: {fileID: 0}
  FontMultiplierSize: 1
  can: {fileID: 0}
  InventoryGameObject: {fileID: 0}
  GhostSprite: {fileID: 21300000, guid: 53ac6335c5527a24c8428d9237fc5860, type: 3}
