%YAML 1.1
%TAG !u! tag:unity3d.com,2011:
--- !u!1001 &100100000
Prefab:
  m_ObjectHideFlags: 1
  serializedVersion: 2
  m_Modification:
    m_TransformParent: {fileID: 0}
    m_Modifications: []
    m_RemovedComponents: []
  m_ParentPrefab: {fileID: 0}
  m_RootGameObject: {fileID: 1868053369194260}
  m_IsPrefabParent: 1
--- !u!1 &1868053369194260
GameObject:
  m_ObjectHideFlags: 0
  m_PrefabParentObject: {fileID: 0}
  m_PrefabInternal: {fileID: 100100000}
  serializedVersion: 5
  m_Component:
  - component: {fileID: 4663530412183112}
  - component: {fileID: 114345950837506206}
  m_Layer: 0
  m_Name: LevelDesc
  m_TagString: Untagged
  m_Icon: {fileID: 0}
  m_NavMeshLayer: 0
  m_StaticEditorFlags: 0
  m_IsActive: 1
--- !u!4 &4663530412183112
Transform:
  m_ObjectHideFlags: 1
  m_PrefabParentObject: {fileID: 0}
  m_PrefabInternal: {fileID: 100100000}
  m_GameObject: {fileID: 1868053369194260}
  m_LocalRotation: {x: -0, y: -0, z: -0, w: 1}
  m_LocalPosition: {x: 4.8531895, y: -2.3871658, z: 0}
  m_LocalScale: {x: 1, y: 1, z: 1}
  m_Children: []
  m_Father: {fileID: 0}
  m_RootOrder: 0
  m_LocalEulerAnglesHint: {x: 0, y: 0, z: 0}
--- !u!114 &114345950837506206
MonoBehaviour:
  m_ObjectHideFlags: 1
  m_PrefabParentObject: {fileID: 0}
  m_PrefabInternal: {fileID: 100100000}
  m_GameObject: {fileID: 1868053369194260}
  m_Enabled: 1
  m_EditorHideFlags: 0
  m_Script: {fileID: 11500000, guid: 5b9ba973798b30a4ca1f25323aced935, type: 3}
  m_Name: 
  m_EditorClassIdentifier: 
  LevelBit: 0
  Background: {fileID: 0}
  BackgroundMaterial: {fileID: 2100000, guid: d7e7a1781d6e16f449bcc2872843efef, type: 2}
  Schwierig: {fileID: 0}
  ex:
    LevelName: 
    BackgroundColor: 
    RectColor: 
    LevelDauer: 0
    Speed: 0
    LevelNumber: 0
    Schwierigkeit_x: 
    Schwierigkeit_y: 
    point_multilier: 1
    ScoreObjectSeri: []
    SteuerungsumkehrSeri: []
    StroboskopSeri: []
    JumpingBallSeri: []
  score: 0
